# setting LC_ALL to "C"
# --> Including file '/afs/cern.ch/user/r/rekopecn/ImpactKit/selectionmodern.py'
[?1034h# <-- End of file '/afs/cern.ch/user/r/rekopecn/ImpactKit/selectionmodern.py'
# skipping configuration of RawEventFormatConf
# applying configuration of DaVinci
# DaVinci                   INFO    Applying DaVinci configuration
# DaVinci                   INFO    /***** User DaVinci/DaVinci ************************************************************************
|-MainOptions          = ''
|-TupleFile            = 'tuple_modern.root'  (default: '')
|-SkipEvents           = 0
|-RootCompressionLevel = 'LZMA:6'
|-Input                = []  (default: [])
|-DDDBtag              = ''
|-UserAlgorithms       = [GaudiSequencer('Dzero_seq'), DecayTreeTuple('TupleDstToD0pi_DstarToKpi')]
|                      (default: [])
|-RootInTES            = ''
|-DQFLAGStag           = ''
|-Lumi                 = False
|-MoniSequence         = []  (default: [])
|-VerboseMessages      = False
|-InputType            = 'DST'  (default: 'DST')
|-ProductionType       = 'None'
|-PrintFreq            = 100  (default: 1000)
|-Detectors            = ['Velo', 'PuVeto', 'Rich1', 'Rich2', 'TT', 'IT', 'OT', 'Spd', 'Prs', 'Ecal', 'Hcal', 'Muon', 'Magnet', 'Tr']
|                      (default: ['Velo', 'PuVeto', 'Rich1', 'Rich2', 'TT', 'IT', 'OT', 'Spd', 'Prs', 'Ecal', 'Hcal', 'Muon', 'Magnet', 'Tr'])
|-EvtMax               = 1000  (default: -1)
|-CondDBtag            = ''
|-MergeGenFSR          = False
|-Simulation           = True  (default: False)
|-DataType             = '2012'  (default: '')
|-RedoMCLinks          = False
|-IgnoreDQFlags        = False
|-HistogramFile        = ''
|-WriteFSR             = True
|-EnableUnpack         = None
|-EventPreFilters      = []  (default: [])
\----- (End of User DaVinci/DaVinci) ---------------------------------------------------------------
# DaVinci                   WARNING ``DDDBtag''   is not specified for simulated data
# DaVinci                   WARNING ``CondDBtag'' is not specified for simulated data
# --> Including file '/cvmfs/lhcb.cern.ch/lib/lhcb/LHCB/LHCB_v42r1/GaudiConf/options/PreloadUnits.opts'
# --> Including file '/cvmfs/lhcb.cern.ch/lib/lhcb/LHCB/LHCB_v42r1/GaudiConf/options/units.opts'
# <-- End of file '/cvmfs/lhcb.cern.ch/lib/lhcb/LHCB/LHCB_v42r1/GaudiConf/options/units.opts'
# <-- End of file '/cvmfs/lhcb.cern.ch/lib/lhcb/LHCB/LHCB_v42r1/GaudiConf/options/PreloadUnits.opts'
# Apply CaloProcessor configuration for ['Digits', 'Clusters'] and ['InAcceptance', 'Match', 'Energy', 'Chi2', 'DLL', 'NeutralPID']
# Configurabe : Counter level is 1 
# CaloDigits onDemand for ['Ecal', 'Hcal', 'Prs', 'Spd']
# ClusterReco onDemand
# Configured Ecal Clusters Reco : ClusterReco 
# Configured Calo PIDs           : CaloPIDsCaloPIDsForCaloProcessor 
# CaloProcessor onDemand enabled
# CaloReProcessing cannot be processed on reduced (m)DST data
# DaVinci                   INFO    Creating Lumi Algorithms
# DaVinci                   INFO    No MainOptions specified. DaVinci() will import no options file!
# DaVinci                   INFO    Creating User Algorithms
# DaVinci                   INFO    Append to Main Sequence has been called
# DaVinci                   INFO    Creating Moni Algorithms
# DaVinci                   INFO    Append to Moni Sequence has been called
# /***** User DaVinci/DaVinci ************************************************************************
# |-MainOptions          = ''
# |-TupleFile            = 'tuple_modern.root'  (default: '')
# |-SkipEvents           = 0
# |-RootCompressionLevel = 'LZMA:6'
# |-Input                = []  (default: [])
# |-DDDBtag              = ''
# |-UserAlgorithms       = [GaudiSequencer('Dzero_seq'), DecayTreeTuple('TupleDstToD0pi_DstarToKpi')]
# |                      (default: [])
# |-RootInTES            = ''
# |-DQFLAGStag           = ''
# |-Lumi                 = False
# |-MoniSequence         = []  (default: [])
# |-VerboseMessages      = False
# |-InputType            = 'DST'  (default: 'DST')
# |-ProductionType       = 'None'
# |-PrintFreq            = 100  (default: 1000)
# |-Detectors            = ['Velo', 'PuVeto', 'Rich1', 'Rich2', 'TT', 'IT', 'OT', 'Spd', 'Prs', 'Ecal', 'Hcal', 'Muon', 'Magnet', 'Tr']
# |                      (default: ['Velo', 'PuVeto', 'Rich1', 'Rich2', 'TT', 'IT', 'OT', 'Spd', 'Prs', 'Ecal', 'Hcal', 'Muon', 'Magnet', 'Tr'])
# |-EvtMax               = 1000  (default: -1)
# |-CondDBtag            = ''
# |-MergeGenFSR          = False
# |-Simulation           = True  (default: False)
# |-DataType             = '2012'  (default: '')
# |-RedoMCLinks          = False
# |-IgnoreDQFlags        = True  (default: False)
# |-HistogramFile        = ''
# |-WriteFSR             = True
# |-EnableUnpack         = None
# |-EventPreFilters      = []  (default: [])
# \----- (End of User DaVinci/DaVinci) ---------------------------------------------------------------
# applying configuration of TrackSys
# /***** User TrackSys/TrackSys **********************************************************************
# |-FilterBeforeFit          = True
# |-TrackingSequence         = []  (default: [])
# |-ExpertTracking           = []  (default: [])
# |-ExpertHistos             = False
# |-TrackExtraInfoAlgorithms = ['CloneFlagging', 'TrackLikelihood', 'GhostProbability']  (default: [])
# |-DataType                 = '2012'  (default: '2011')
# |-WithMC                   = False
# |-TrackTypes               = ['Velo', 'Upstream', 'Forward', 'Seeding', 'Match', 'Downstream']  (default: [])
# |-OutputType               = ''
# |-Simulation               = False
# |-OldCloneKiller           = False
# |-ForceNewSeq              = False
# |-GlobalCuts               = {'Velo': 6000, 'OT': 15000, 'IT': 999999}  (default: {})
# |-ExcludedLayers           = []  (default: [])
# |-ForceOldSeq              = False
# |-SpecialData              = []  (default: [])
# |-HltMode                  = False
# |-TrackPatRecAlgorithms    = ['FastVelo', 'Forward', 'PatSeed', 'PatMatch', 'Downstream', 'VeloTT']
# |                          (default: [])
# \----- (End of User TrackSys/TrackSys) -------------------------------------------------------------
# applying configuration of DefaultTrackingCuts
# /***** User DefaultTrackingCuts/DefaultTrackingCuts ************************************************
# |-Types = ['Long']  (default: ['Long'])
# |-Cuts  = {'CloneDistCut': [5000, 9e+99], 'Chi2Cut': [0, 5]}
# |       (default: {'CloneDistCut': [5000, 9e+99], 'Chi2Cut': [0, 5]})
# \----- (End of User DefaultTrackingCuts/DefaultTrackingCuts) ---------------------------------------
# skipping configuration of LumiIntegratorConf
# applying configuration of LHCbApp
# /***** User LHCbApp/LHCbApp ************************************************************************
# |-Persistency    = None
# |-OutputLevel    = 3
# |-DataType       = '2012'  (default: '2012')
# |-TimeStamp      = False
# |-SkipEvents     = 0
# |-EvtMax         = 1000  (default: -1)
# |-CondDBtag      = ''
# |-DQFLAGStag     = ''
# |-IgnoreDQFlags  = True  (default: True)
# |-Monitors       = []  (default: [])
# |-Detectors      = []  (default: [])
# |-LocalDataTypes = []  (default: [])
# |-XMLSummary     = None
# |-Simulation     = True  (default: False)
# |-DDDBtag        = ''
# |-OnlineMode     = False
# \----- (End of User LHCbApp/LHCbApp) ---------------------------------------------------------------
# applying configuration of PhysConf
# Applying Phys configuration
# --> Including file '/cvmfs/lhcb.cern.ch/lib/lhcb/DBASE/TCK/L0TCK/v5r14/options/L0DUConfig.opts'
# <-- End of file '/cvmfs/lhcb.cern.ch/lib/lhcb/DBASE/TCK/L0TCK/v5r14/options/L0DUConfig.opts'
# PhysConf: Configuring EventClockSvc to use RecHeader
# /***** User PhysConf/PhysConf **********************************************************************
# |-CaloReProcessing  = False
# |-DataType          = '2012'  (default: '')
# |-AllowPIDRecalib   = True
# |-OutputLevel       = 3
# |-Simulation        = True  (default: False)
# |-UpdateCaloMCLinks = True
# |-Detectors         = ['Velo', 'PuVeto', 'Rich1', 'Rich2', 'TT', 'IT', 'OT', 'Spd', 'Prs', 'Ecal', 'Hcal', 'Muon', 'Magnet', 'Tr']
# |                   (default: ['Velo', 'PuVeto', 'Rich1', 'Rich2', 'TT', 'IT', 'OT', 'Spd', 'Prs', 'Ecal', 'Hcal', 'Muon', 'Magnet', 'Tr'])
# |-EnableUnpack      = ['Reconstruction', 'Stripping']  (default: None)
# |-InputType         = 'DST'  (default: 'DST')
# |-AllowPIDRerunning = True
# \----- (End of User PhysConf/PhysConf) -------------------------------------------------------------
# applying configuration of AnalysisConf
# Applying Analysis configuration
# /***** User AnalysisConf/AnalysisConf **************************************************************
# |-DataType    = '2012'  (default: '')
# |-OutputLevel = 3
# |-RedoMCLinks = False  (default: False)
# |-RootInTES   = ''
# |-Simulation  = True  (default: False)
# |-InputType   = 'DST'  (default: '')
# \----- (End of User AnalysisConf/AnalysisConf) -----------------------------------------------------
# WARNING: something else configured a decoder already, Raw/Spd/Digits CaloDigitsFromRaw/SpdFromRaw
# WARNING: something else configured a decoder already, Raw/Prs/Digits CaloDigitsFromRaw/PrsFromRaw
# WARNING: something else configured a decoder already, Raw/Ecal/Digits CaloZSupAlg/EcalZSup
# WARNING: something else configured a decoder already, Raw/Hcal/Digits CaloZSupAlg/HcalZSup
# WARNING: file '/cvmfs/lhcb.cern.ch/lib/lhcb/DBASE/TCK/L0TCK/v5r14/options/L0DUConfig.opts' already included, ignored.
# WARNING: Data-On-Demand: replace action for location "Raw/Spd/Digits" from "/***** Algorithm CaloDigitsFromRaw/SpdFromRaw ******************************************************
# WARNING: |-ErrorMax                  = 1
# WARNING: |-StatTableHeader           = ' |    Counter                                      |     #     |    sum     | mean/eff^* | rms/err^*  |     min     |     max     |'
# WARNING: |-AuditExecute              = False
# WARNING: |-StatusOnTES               = True
# WARNING: |-AuditReinitialize         = False
# WARNING: |-VetoObjects               = []  (default: [])
# WARNING: |-AuditRestart              = False
# WARNING: |-StatEntityList            = []  (default: [])
# WARNING: |-Enable                    = True
# WARNING: |-Timeline                  = True
# WARNING: |-OutputType                = 'Digits'
# WARNING: |-RootInTES                 = ''
# WARNING: |-AuditFinalize             = False
# WARNING: |-AuditEndRun               = False
# WARNING: |-ErrorsPrint               = True
# WARNING: |-AuditBeginRun             = False
# WARNING: |-Cardinality               = 1
# WARNING: |-ErrorCount                = 0
# WARNING: |-ExtraOutputs              = []  (default: [])
# WARNING: |-IsIOBound                 = False
# WARNING: |-Extension                 = ''
# WARNING: |-MonitorService            = 'MonitorSvc'
# WARNING: |-AuditInitialize           = False
# WARNING: |-RegularRowFormat          = ' | %|-48.48s|%|50t||%|10d| |%|11.7g| |%|#11.5g| |%|#11.5g| |%|#12.5g| |%|#12.5g| |'
# WARNING: |-TypePrint                 = True
# WARNING: |-StatPrint                 = True
# WARNING: |-ExtraInputs               = []  (default: [])
# WARNING: |-AuditStop                 = False
# WARNING: |-Context                   = 'Offline'  (default: '')
# WARNING: |-PropertiesPrint           = False
# WARNING: |-NeededResources           = []  (default: [])
# WARNING: |-RequireObjects            = []  (default: [])
# WARNING: |-UseEfficiencyRowFormat    = True
# WARNING: |-OutputLevel               = 3  (default: 0)
# WARNING: |-AuditStart                = False
# WARNING: |-RegisterForContextService = True
# WARNING: |-AuditAlgorithms           = False
# WARNING: |-PinContainer              = 'Raw/Ecal/PinAdcs'
# WARNING: |-AdcsContainer             = 'Raw/Spd/Adcs'  (default: 'Raw/Ecal/Adcs')
# WARNING: |-IsClonable                = False
# WARNING: |-DigitsContainer           = 'Raw/Spd/Digits'  (default: 'Raw/Ecal/Digits')
# WARNING: |-EfficiencyRowFormat       = ' |*%|-48.48s|%|50t||%|10d| |%|11.5g| |(%|#9.6g| +- %|-#9.6g|)%%|   -------   |   -------   |'
# WARNING: |-ErrorCounter              = 0
# WARNING: |-CounterList               = ['.*']  (default: ['.*'])
# WARNING: \----- (End of Algorithm CaloDigitsFromRaw/SpdFromRaw) ---------------------------------------------" to "CaloDigitsFromRaw/SpdFromRaw" 
# WARNING: Data-On-Demand: replace action for location "Raw/Prs/Digits" from "/***** Algorithm CaloDigitsFromRaw/PrsFromRaw ******************************************************
# WARNING: |-ErrorMax                  = 1
# WARNING: |-StatTableHeader           = ' |    Counter                                      |     #     |    sum     | mean/eff^* | rms/err^*  |     min     |     max     |'
# WARNING: |-AuditExecute              = False
# WARNING: |-StatusOnTES               = True
# WARNING: |-AuditReinitialize         = False
# WARNING: |-VetoObjects               = []  (default: [])
# WARNING: |-AuditRestart              = False
# WARNING: |-StatEntityList            = []  (default: [])
# WARNING: |-Enable                    = True
# WARNING: |-Timeline                  = True
# WARNING: |-OutputType                = 'Digits'
# WARNING: |-RootInTES                 = ''
# WARNING: |-AuditFinalize             = False
# WARNING: |-AuditEndRun               = False
# WARNING: |-ErrorsPrint               = True
# WARNING: |-AuditBeginRun             = False
# WARNING: |-Cardinality               = 1
# WARNING: |-ErrorCount                = 0
# WARNING: |-ExtraOutputs              = []  (default: [])
# WARNING: |-IsIOBound                 = False
# WARNING: |-Extension                 = ''
# WARNING: |-MonitorService            = 'MonitorSvc'
# WARNING: |-AuditInitialize           = False
# WARNING: |-RegularRowFormat          = ' | %|-48.48s|%|50t||%|10d| |%|11.7g| |%|#11.5g| |%|#11.5g| |%|#12.5g| |%|#12.5g| |'
# WARNING: |-TypePrint                 = True
# WARNING: |-StatPrint                 = True
# WARNING: |-ExtraInputs               = []  (default: [])
# WARNING: |-AuditStop                 = False
# WARNING: |-Context                   = 'Offline'  (default: '')
# WARNING: |-PropertiesPrint           = False
# WARNING: |-NeededResources           = []  (default: [])
# WARNING: |-RequireObjects            = []  (default: [])
# WARNING: |-UseEfficiencyRowFormat    = True
# WARNING: |-OutputLevel               = 3  (default: 0)
# WARNING: |-AuditStart                = False
# WARNING: |-RegisterForContextService = True
# WARNING: |-AuditAlgorithms           = False
# WARNING: |-PinContainer              = 'Raw/Ecal/PinAdcs'
# WARNING: |-AdcsContainer             = 'Raw/Prs/Adcs'  (default: 'Raw/Ecal/Adcs')
# WARNING: |-IsClonable                = False
# WARNING: |-DigitsContainer           = 'Raw/Prs/Digits'  (default: 'Raw/Ecal/Digits')
# WARNING: |-EfficiencyRowFormat       = ' |*%|-48.48s|%|50t||%|10d| |%|11.5g| |(%|#9.6g| +- %|-#9.6g|)%%|   -------   |   -------   |'
# WARNING: |-ErrorCounter              = 0
# WARNING: |-CounterList               = ['.*']  (default: ['.*'])
# WARNING: \----- (End of Algorithm CaloDigitsFromRaw/PrsFromRaw) ---------------------------------------------" to "CaloDigitsFromRaw/PrsFromRaw" 
# WARNING: Data-On-Demand: replace action for location "Raw/Ecal/Digits" from "/***** Algorithm CaloZSupAlg/EcalZSup **************************************************************
# WARNING: |-ErrorMax                  = 1
# WARNING: |-StatTableHeader           = ' |    Counter                                      |     #     |    sum     | mean/eff^* | rms/err^*  |     min     |     max     |'
# WARNING: |-OutputDigitData           = 'Raw/Ecal/Digits'  (default: '')
# WARNING: |-AuditExecute              = False
# WARNING: |-StatusOnTES               = True
# WARNING: |-AuditReinitialize         = False
# WARNING: |-VetoObjects               = []  (default: [])
# WARNING: |-AuditRestart              = False
# WARNING: |-StatEntityList            = []  (default: [])
# WARNING: |-ZsupThreshold             = 0
# WARNING: |-Enable                    = True
# WARNING: |-Timeline                  = True
# WARNING: |-OutputType                = 'Digits'
# WARNING: |-RootInTES                 = ''
# WARNING: |-AuditFinalize             = False
# WARNING: |-AuditEndRun               = False
# WARNING: |-ErrorsPrint               = True
# WARNING: |-AuditBeginRun             = False
# WARNING: |-Cardinality               = 1
# WARNING: |-ErrorCount                = 0
# WARNING: |-ExtraOutputs              = []  (default: [])
# WARNING: |-IsIOBound                 = False
# WARNING: |-Extension                 = ''
# WARNING: |-MonitorService            = 'MonitorSvc'
# WARNING: |-AuditInitialize           = False
# WARNING: |-RegularRowFormat          = ' | %|-48.48s|%|50t||%|10d| |%|11.7g| |%|#11.5g| |%|#11.5g| |%|#12.5g| |%|#12.5g| |'
# WARNING: |-DetectorName              = ''
# WARNING: |-TypePrint                 = True
# WARNING: |-StatPrint                 = True
# WARNING: |-ZsupMethod                = ''
# WARNING: |-ExtraInputs               = []  (default: [])
# WARNING: |-AuditStop                 = False
# WARNING: |-Context                   = 'Offline'  (default: '')
# WARNING: |-PropertiesPrint           = False
# WARNING: |-NeededResources           = []  (default: [])
# WARNING: |-UseEfficiencyRowFormat    = True
# WARNING: |-OutputLevel               = 3  (default: 0)
# WARNING: |-AuditStart                = False
# WARNING: |-OutputADCData             = 'Raw/Ecal/Adcs'  (default: '')
# WARNING: |-RegisterForContextService = True
# WARNING: |-AuditAlgorithms           = False
# WARNING: |-ZsupNeighbor              = -256
# WARNING: |-RequireObjects            = []  (default: [])
# WARNING: |-IsClonable                = False
# WARNING: |-EfficiencyRowFormat       = ' |*%|-48.48s|%|50t||%|10d| |%|11.5g| |(%|#9.6g| +- %|-#9.6g|)%%|   -------   |   -------   |'
# WARNING: |-ErrorCounter              = 0
# WARNING: |-CounterList               = ['.*']  (default: ['.*'])
# WARNING: \----- (End of Algorithm CaloZSupAlg/EcalZSup) -----------------------------------------------------" to "CaloZSupAlg/EcalZSup" 
# WARNING: Data-On-Demand: replace action for location "Raw/Hcal/Digits" from "/***** Algorithm CaloZSupAlg/HcalZSup **************************************************************
# WARNING: |-ErrorMax                  = 1
# WARNING: |-StatTableHeader           = ' |    Counter                                      |     #     |    sum     | mean/eff^* | rms/err^*  |     min     |     max     |'
# WARNING: |-OutputDigitData           = 'Raw/Hcal/Digits'  (default: '')
# WARNING: |-AuditExecute              = False
# WARNING: |-StatusOnTES               = True
# WARNING: |-AuditReinitialize         = False
# WARNING: |-VetoObjects               = []  (default: [])
# WARNING: |-AuditRestart              = False
# WARNING: |-StatEntityList            = []  (default: [])
# WARNING: |-ZsupThreshold             = 0
# WARNING: |-Enable                    = True
# WARNING: |-Timeline                  = True
# WARNING: |-OutputType                = 'Digits'
# WARNING: |-RootInTES                 = ''
# WARNING: |-AuditFinalize             = False
# WARNING: |-AuditEndRun               = False
# WARNING: |-ErrorsPrint               = True
# WARNING: |-AuditBeginRun             = False
# WARNING: |-Cardinality               = 1
# WARNING: |-ErrorCount                = 0
# WARNING: |-ExtraOutputs              = []  (default: [])
# WARNING: |-IsIOBound                 = False
# WARNING: |-Extension                 = ''
# WARNING: |-MonitorService            = 'MonitorSvc'
# WARNING: |-AuditInitialize           = False
# WARNING: |-RegularRowFormat          = ' | %|-48.48s|%|50t||%|10d| |%|11.7g| |%|#11.5g| |%|#11.5g| |%|#12.5g| |%|#12.5g| |'
# WARNING: |-DetectorName              = ''
# WARNING: |-TypePrint                 = True
# WARNING: |-StatPrint                 = True
# WARNING: |-ZsupMethod                = ''
# WARNING: |-ExtraInputs               = []  (default: [])
# WARNING: |-AuditStop                 = False
# WARNING: |-Context                   = 'Offline'  (default: '')
# WARNING: |-PropertiesPrint           = False
# WARNING: |-NeededResources           = []  (default: [])
# WARNING: |-UseEfficiencyRowFormat    = True
# WARNING: |-OutputLevel               = 3  (default: 0)
# WARNING: |-AuditStart                = False
# WARNING: |-OutputADCData             = 'Raw/Hcal/Adcs'  (default: '')
# WARNING: |-RegisterForContextService = True
# WARNING: |-AuditAlgorithms           = False
# WARNING: |-ZsupNeighbor              = -256
# WARNING: |-RequireObjects            = []  (default: [])
# WARNING: |-IsClonable                = False
# WARNING: |-EfficiencyRowFormat       = ' |*%|-48.48s|%|50t||%|10d| |%|11.5g| |(%|#9.6g| +- %|-#9.6g|)%%|   -------   |   -------   |'
# WARNING: |-ErrorCounter              = 0
# WARNING: |-CounterList               = ['.*']  (default: ['.*'])
# WARNING: \----- (End of Algorithm CaloZSupAlg/HcalZSup) -----------------------------------------------------" to "CaloZSupAlg/HcalZSup" 
# WARNING: Using default tag dddb-20150928 for partition DDDB
# WARNING: Property 'EnableUnpack' is set in both 'DigiConf' and 'SimConf', using 'DigiConf.EnableUnpack'
# WARNING: Property 'DataType' is set in both 'DigiConf' and 'SimConf', using 'DigiConf.DataType'
# No Writer defined for DIGI
ApplicationMgr    SUCCESS 
====================================================================================================================================
                                                   Welcome to DaVinci version v42r2
                                          running on lxplus036.cern.ch on Wed May  3 12:26:54 2017
====================================================================================================================================
ApplicationMgr       INFO Application Manager Configured successfully
DetectorPersist...   INFO Added successfully Conversion service:XmlCnvSvc
DetectorDataSvc   SUCCESS Detector description database: conddb:/lhcb.xml
RndmGenSvc.Engine    INFO Generator engine type:CLHEP::RanluxEngine
RndmGenSvc.Engine    INFO Current Seed:1234567 Luxury:3
RndmGenSvc           INFO Using Random engine:HepRndm::Engine<CLHEP::RanluxEngine>
TimingAuditor.T...   INFO This machine has a speed about   2.33 times the speed of a 2.8 GHz Xeon.
NTupleSvc            INFO Added stream file:tuple_modern.root as FILE1
TransportSvc         INFO Initialize the static pointer to DetDesc::IGeometryErrorSvc
TransportSvc         INFO Recovery of geometry errors is  ENABLED
COOLConfSvc          INFO CORAL Connection Retrial Period set to 60s
COOLConfSvc          INFO CORAL Connection Retrial Time-Out set to 900s
DDDB                 INFO Connected to database "sqlite_file:/cvmfs/lhcb.cern.ch/lib/lhcb/SQLite/SQLDDDB/db/DDDB.db/DDDB"
DDDB                 INFO Using TAG "dddb-20150928"
DaVinciEventSeq      INFO Member list: DaVinciInit/DaVinciInitAlg, GaudiSequencer/FilteredEventSeq, GaudiSequencer/LumiSeq
DaVinciInitAlg    SUCCESS ==================================================================
DaVinciInitAlg    SUCCESS Requested to process 1000 events
DaVinciInitAlg    SUCCESS ==================================================================
RootHistSvc          INFO Writing ROOT histograms to: UndefinedROOTOutputFileName
HistogramPersis...   INFO Added successfully Conversion service:RootHistSvc
HistogramDataSvc     INFO Added stream file:/cvmfs/lhcb.cern.ch/lib/lhcb/PARAM/ParamFiles/v8r20/data/JetEnergyCorrections_R05_v3.root as JEC14R05
HistogramDataSvc     INFO Added stream file:/cvmfs/lhcb.cern.ch/lib/lhcb/PARAM/ParamFiles/v8r20/data/JetEnergyCorrections_R07_v3.root as JEC14R07
HistogramDataSvc     INFO Added stream file:/cvmfs/lhcb.cern.ch/lib/lhcb/PARAM/ParamFiles/v8r20/data/PhotonPdf.root as CaloNeutralPIDs
HistogramDataSvc     INFO Added stream file:/cvmfs/lhcb.cern.ch/lib/lhcb/PARAM/ParamFiles/v8r20/data/CaloPIDs_DC09_v1.root as CaloPIDs
FilteredEventSeq     INFO Member list: GaudiSequencer/DaVinciEventInitSeq, GaudiSequencer/DaVinciAnalysisSeq
DaVinciEventIni...   INFO Member list: GaudiSequencer/PhysInitSeq, GaudiSequencer/AnalysisInitSeq
PhysInitSeq          INFO Member list: 
AnalysisInitSeq      INFO Member list: 
DaVinciAnalysisSeq   INFO Member list: GaudiSequencer/DaVinciUserSequence, GaudiSequencer/MonitoringSequence
DaVinciUserSequ...   INFO Member list: GaudiSequencer/Dzero_seq, DecayTreeTuple/TupleDstToD0pi_DstarToKpi
Dzero_seq            INFO Member list: LoKi::VoidFilter/SelFilterPhys_StdAllNoPIDsPions_Particles, LoKi::VoidFilter/SelFilterPhys_StdAllLooseKaons_Particles, CombineParticles/Sel_D0
TupleDstToD0pi_...   INFO Will look for  ( ( D0  -> pi-  K+ ) || ( D~0  -> pi+  K- ) ) 
MonitoringSequence   INFO Member list: 
LumiSeq              INFO OR Member list: EventAccounting/EventAccount
EventPersistenc...   INFO Added successfully Conversion service:RootCnvSvc
EventSelector        INFO Stream:EventSelector.DataStreamTool_1 Def:DATAFILE='root://eoslhcb.cern.ch//eos/lhcb/grid/prod/lhcb/MC/2012/ALLSTREAMS.DST/00035742/0000/00035742_00000001_1.allstreams.dst' SVC='Gaudi::RootEvtSelector' OPT='READ'
ApplicationMgr       INFO Application Manager Initialized successfully
ApplicationMgr       INFO Application Manager Started successfully
EventSelector     SUCCESS Reading Event record 1. Record number within stream 1: 1
SIMCOND              INFO Connected to database "sqlite_file:/cvmfs/lhcb.cern.ch/lib/lhcb/SQLite/SQLDDDB/db/SIMCOND.db/SIMCOND"
SIMCOND              INFO Using TAG ""
MagneticFieldSvc     INFO Opened magnetic field file : /cvmfs/lhcb.cern.ch/lib/lhcb/DBASE/FieldMap/v5r7/cdf/field.v5r0.c1.up.cdf
MagneticFieldSvc     INFO Opened magnetic field file : /cvmfs/lhcb.cern.ch/lib/lhcb/DBASE/FieldMap/v5r7/cdf/field.v5r0.c2.up.cdf
MagneticFieldSvc     INFO Opened magnetic field file : /cvmfs/lhcb.cern.ch/lib/lhcb/DBASE/FieldMap/v5r7/cdf/field.v5r0.c3.up.cdf
MagneticFieldSvc     INFO Opened magnetic field file : /cvmfs/lhcb.cern.ch/lib/lhcb/DBASE/FieldMap/v5r7/cdf/field.v5r0.c4.up.cdf
MagneticFieldSvc     INFO Map scaled by factor 0 with polarity internally used: 1 signed relative current: 0
StdAllNoPIDsPions    INFO Particle/AntiParticle to be created : 'pi+'/'pi-'
UnpackChargedPr...   INFO Member list: UnpackProtoParticle/UnpackChargedProtos, GaudiSequencer/ProtoParticleCombDLLs, GaudiSequencer/ANNPIDSeq
ProtoParticleCo...   INFO Member list: TESCheck/CheckChargedProtosExist, ChargedProtoParticleAddMuonInfo/ChargedProtoPAddMuon, ChargedProtoParticleAddRichInfo/ChargedProtoPAddRich, ChargedProtoCombineDLLsAlg/ChargedProtoPCombDLL
ChargedProtoPCo...   INFO Using retuned RICH el and mu DLL values in combined DLLs
ANNPIDSeq            INFO Member list: ApplicationVersionFilter/ANNPIDRecoVersionFilter, ANNGlobalPID::ChargedProtoANNPIDAlg/ReDoANNPIDLongElectron, ANNGlobalPID::ChargedProtoANNPIDAlg/ReDoANNPIDLongMuon, ANNGlobalPID::ChargedProtoANNPIDAlg/ReDoANNPIDLongPion, ANNGlobalPID::ChargedProtoANNPIDAlg/ReDoANNPIDLongKaon, ANNGlobalPID::ChargedProtoANNPIDAlg/ReDoANNPIDLongProton, ANNGlobalPID::ChargedProtoANNPIDAlg/ReDoANNPIDLongGhost, ANNGlobalPID::ChargedProtoANNPIDAlg/ReDoANNPIDDownstreamElectron, ANNGlobalPID::ChargedProtoANNPIDAlg/ReDoANNPIDDownstreamMuon, ANNGlobalPID::ChargedProtoANNPIDAlg/ReDoANNPIDDownstreamPion, ANNGlobalPID::ChargedProtoANNPIDAlg/ReDoANNPIDDownstreamKaon, ANNGlobalPID::ChargedProtoANNPIDAlg/ReDoANNPIDDownstreamProton, ANNGlobalPID::ChargedProtoANNPIDAlg/ReDoANNPIDDownstreamGhost, ANNGlobalPID::ChargedProtoANNPIDAlg/ReDoANNPIDUpstreamElectron, ANNGlobalPID::ChargedProtoANNPIDAlg/ReDoANNPIDUpstreamMuon, ANNGlobalPID::ChargedProtoANNPIDAlg/ReDoANNPIDUpstreamPion, ANNGlobalPID::ChargedProtoANNPIDAlg/ReDoANNPIDUpstreamKaon, ANNGlobalPID::ChargedProtoANNPIDAlg/ReDoANNPIDUpstreamProton, ANNGlobalPID::ChargedProtoANNPIDAlg/ReDoANNPIDUpstreamGhost
ReDoANNPIDLongE...   INFO ANNPID : Tune=MC12TuneV2    TrackType=Long         Particle=electron    
ReDoANNPIDLongMuon   INFO ANNPID : Tune=MC12TuneV2    TrackType=Long         Particle=muon        
ReDoANNPIDLongPion   INFO ANNPID : Tune=MC12TuneV2    TrackType=Long         Particle=pion        
ReDoANNPIDLongKaon   INFO ANNPID : Tune=MC12TuneV2    TrackType=Long         Particle=kaon        
ReDoANNPIDLongP...   INFO ANNPID : Tune=MC12TuneV2    TrackType=Long         Particle=proton      
ReDoANNPIDLongG...   INFO ANNPID : Tune=MC12TuneV2    TrackType=Long         Particle=ghost       
ReDoANNPIDDowns...   INFO ANNPID : Tune=MC12TuneV2    TrackType=Downstream   Particle=electron    
ReDoANNPIDDowns...   INFO ANNPID : Tune=MC12TuneV2    TrackType=Downstream   Particle=muon        
ReDoANNPIDDowns...   INFO ANNPID : Tune=MC12TuneV2    TrackType=Downstream   Particle=pion        
ReDoANNPIDDowns...   INFO ANNPID : Tune=MC12TuneV2    TrackType=Downstream   Particle=kaon        
ReDoANNPIDDowns...   INFO ANNPID : Tune=MC12TuneV2    TrackType=Downstream   Particle=proton      
ReDoANNPIDDowns...   INFO ANNPID : Tune=MC12TuneV2    TrackType=Downstream   Particle=ghost       
ReDoANNPIDUpstr...   INFO ANNPID : Tune=MC12TuneV2    TrackType=Upstream     Particle=electron    
ReDoANNPIDUpstr...   INFO ANNPID : Tune=MC12TuneV2    TrackType=Upstream     Particle=muon        
ReDoANNPIDUpstr...   INFO ANNPID : Tune=MC12TuneV2    TrackType=Upstream     Particle=pion        
ReDoANNPIDUpstr...   INFO ANNPID : Tune=MC12TuneV2    TrackType=Upstream     Particle=kaon        
ReDoANNPIDUpstr...   INFO ANNPID : Tune=MC12TuneV2    TrackType=Upstream     Particle=proton      
ReDoANNPIDUpstr...   INFO ANNPID : Tune=MC12TuneV2    TrackType=Upstream     Particle=ghost       
UnpackMuonPIDSeq     INFO Member list: DataPacking::Unpack<LHCb::MuonPIDPacker>/UnpackMuonPIDs, MuonPIDsFromProtoParticlesAlg/CheckMuonPIDs
CheckMuonPIDs        INFO Creating MuonPIDs 'Rec/Muon/MuonPID' from ProtoParticles at 'Rec/ProtoP/Charged'
UnpackRichPIDSeq     INFO Member list: DataPacking::Unpack<LHCb::RichPIDPacker>/UnpackRichPIDs, RichPIDsFromProtoParticlesAlg/CheckRichPIDs
CheckRichPIDs        INFO Creating RichPIDs 'Rec/Rich/PIDs' from ProtoParticles at 'Rec/ProtoP/Charged'
StdAllLooseKaons     INFO Particle/AntiParticle to be created : 'K+'/'K-'
ToolSvc.LoKi::V...   INFO Option for Optimised Kalman Filter fit is activated 
TupleDstToD0pi_...   INFO The head of chain is a D0 : Will keep whole chain as is. 
TupleDstToD0pi_...   INFO PID Tunes = [MC12TuneV2, MC12TuneV3, MC12TuneV4, MC15TuneV1]
TupleDstToD0pi_...   INFO Tree DecayTree initialized :-
TupleDstToD0pi_...   INFO  Event related tools : [TupleToolEventInfo]
TupleDstToD0pi_...   INFO  Particle related stuffers :- 
TupleDstToD0pi_...   INFO   D0 (D0)                     : TupleToolANNPID, TupleToolGeometry, TupleToolKinematic, TupleToolPid
ToolSvc.L0DUConfig   INFO Creating the TEMPLATE configuration tools : ToolSvc.L0DUConfig.Template for time slot :  'T0'
ToolSvc.L0CondD...   INFO Registered RAM(BCID) versions = {}
ToolSvc.L0DUCon...   INFO --------------- TCK = 0x10000------------------
ToolSvc.L0DUCon...   INFO **** L0DU Config loading : L0TCK = 0x10000 for slot T0 ==> OK 
ToolSvc.L0DUCon...   INFO Short description :: NO DESCRIPTION (L0DUConfig.Template)
ToolSvc.L0DUCon...   INFO --------------- TCK = 0x0045------------------
ToolSvc.L0DUCon...   INFO **** L0DU Config loading : L0TCK = 0x0045 for slot T0 ==> OK 
ToolSvc.L0DUCon...   INFO Short description :: Same as L0 TCK 0x0044 with had at 187 (io 184)
ToolSvc.L0DUCon...   INFO The configuration 0x0045 matches the hardware limitations 
ToolSvc.L0DUCon...   INFO - Usage : #Channels   : 24 [75.0% ]    
ToolSvc.L0DUCon...   INFO - Usage : #Conditions : 32 [25.0% ]; order : OK ; reported  : 32/32
ToolSvc.L0DUCon...   INFO - Usage : #Conditions/type (max)  :[Spd(Mult) : 6/8]
PropertyConfigSvc    INFO  resolving alias TCK/0x409f0045
ConfigCDBAccessSvc   INFO  opening /cvmfs/lhcb.cern.ch/lib/lhcb/DBASE/TCK/HltTCK/v3r18p1/config.cdb in mode ReadOnly
PropertyConfigSvc    INFO  resolved TCK/0x409f0045 to 00d005885a31707bb508cc3e55567c22
RCWNTupleCnv         INFO Booked TTree with ID: DecayTree "DecayTree" in directory tuple_modern.root:/TupleDstToD0pi_DstarToKpi
DaVinciInitAlg       INFO Memory has changed from 2157716 to 2366048 KB (208332KB, 9.65521%) in last 100 events
EventSelector     SUCCESS Reading Event record 101. Record number within stream 1: 101
DaVinciInitAlg       INFO Memory has changed from 2366048 to 2366296 KB (248KB, 0.0104816%) in last 100 events
EventSelector     SUCCESS Reading Event record 201. Record number within stream 1: 201
DaVinciInitAlg       INFO Memory has changed from 2366296 to 2366632 KB (336KB, 0.0141994%) in last 100 events
EventSelector     SUCCESS Reading Event record 301. Record number within stream 1: 301
EventSelector     SUCCESS Reading Event record 401. Record number within stream 1: 401
EventSelector     SUCCESS Reading Event record 501. Record number within stream 1: 501
EventSelector     SUCCESS Reading Event record 601. Record number within stream 1: 601
EventSelector     SUCCESS Reading Event record 701. Record number within stream 1: 701
EventSelector     SUCCESS Reading Event record 801. Record number within stream 1: 801
EventSelector     SUCCESS Reading Event record 901. Record number within stream 1: 901
ApplicationMgr       INFO Application Manager Stopped successfully
StdAllNoPIDsPions    INFO ********************************************************************************
StdAllNoPIDsPions    INFO  created 'pi+' and 'pi- : 42328 per 1000 calls (42.328+-26.5657)/event
StdAllNoPIDsPions SUCCESS Number of counters : 1
 |    Counter                                      |     #     |    sum     | mean/eff^* | rms/err^*  |     min     |     max     |
 |*"#accept"                                       |      1000 |       1000 |(  100.000 +- 0.100000 )%|   -------   |   -------   |
ChargedProtoPAd...SUCCESS Number of counters : 1
 |    Counter                                      |     #     |    sum     | mean/eff^* | rms/err^*  |     min     |     max     |
 | "Rec/Muon/MuonPID ==> Rec/ProtoP/Charged"       |      1000 |      69255 |     69.255 |     40.075 |      5.0000 |      264.00 |
ChargedProtoPAd...SUCCESS Number of counters : 1
 |    Counter                                      |     #     |    sum     | mean/eff^* | rms/err^*  |     min     |     max     |
 | "Rec/Rich/PIDs ==> Rec/ProtoP/Charged"          |      1000 |      69255 |     69.255 |     40.075 |      5.0000 |      264.00 |
ChargedProtoPCo...SUCCESS Number of counters : 1
 |    Counter                                      |     #     |    sum     | mean/eff^* | rms/err^*  |     min     |     max     |
 | "CombineDLL ==> Rec/ProtoP/Charged"             |      1000 |      69255 |     69.255 |     40.075 |      5.0000 |      264.00 |
UnpackMuonPIDs    SUCCESS Number of counters : 1
 |    Counter                                      |     #     |    sum     | mean/eff^* | rms/err^*  |     min     |     max     |
 | "# UnPackedData"                                |      1000 |      46397 |     46.397 |     30.552 |      4.0000 |      211.00 |
UnpackTrack       SUCCESS Number of counters : 1
 |    Counter                                      |     #     |    sum     | mean/eff^* | rms/err^*  |     min     |     max     |
 | "# Unpacked Tracks"                             |      1000 |     141733 |     141.73 |     80.220 |      12.000 |      546.00 |
UnpackRichPIDs    SUCCESS Number of counters : 1
 |    Counter                                      |     #     |    sum     | mean/eff^* | rms/err^*  |     min     |     max     |
 | "# UnPackedData"                                |      1000 |      76809 |     76.809 |     44.423 |      7.0000 |      303.00 |
StdAllLooseKaons     INFO Selected 98.8487% of 'Long' ProtoParticles
StdAllLooseKaons     INFO   -> Kaons     57.7585% of selected ProtoParticles
StdAllLooseKaons  SUCCESS Number of counters : 1
 |    Counter                                      |     #     |    sum     | mean/eff^* | rms/err^*  |     min     |     max     |
 |*"#accept"                                       |      1000 |       1000 |(  100.000 +- 0.100000 )%|   -------   |   -------   |
L0DUFromRaw       SUCCESS Number of counters : 1
 |    Counter                                      |     #     |    sum     | mean/eff^* | rms/err^*  |     min     |     max     |
 | "L0DU RawBank Size (Bytes)"                     |       506 |      42504 |     84.000 |     0.0000 |      84.000 |      84.000 |
DaVinciInitAlg    SUCCESS ==================================================================
DaVinciInitAlg    SUCCESS 1000 events processed
DaVinciInitAlg    SUCCESS ==================================================================
SelFilterPhys_S...SUCCESS Number of counters : 1
 |    Counter                                      |     #     |    sum     | mean/eff^* | rms/err^*  |     min     |     max     |
 |*"#passed"                                       |      1000 |       1000 |(  100.000 +- 0.100000 )%|   -------   |   -------   |
SelFilterPhys_S...SUCCESS Number of counters : 1
 |    Counter                                      |     #     |    sum     | mean/eff^* | rms/err^*  |     min     |     max     |
 |*"#passed"                                       |      1000 |       1000 |(  100.000 +- 0.100000 )%|   -------   |   -------   |
Sel_D0            SUCCESS Number of counters : 13
 |    Counter                                      |     #     |    sum     | mean/eff^* | rms/err^*  |     min     |     max     |
 | "# D0 -> pi-  K+ "                              |      1000 |        570 |    0.57000 |     1.0398 |      0.0000 |      8.0000 |
 | "# D~0 -> pi+  K- "                             |      1000 |        592 |    0.59200 |     1.1070 |      0.0000 |      9.0000 |
 | "# K+"                                          |      1000 |       2762 |     2.7620 |     3.1221 |      0.0000 |      27.000 |
 | "# K-"                                          |      1000 |       2782 |     2.7820 |     3.3335 |      0.0000 |      35.000 |
 | "# Phys/StdAllLooseKaons"                       |      1000 |      24448 |     24.448 |     19.363 |      1.0000 |      136.00 |
 | "# Phys/StdAllNoPIDsPions"                      |      1000 |      42328 |     42.328 |     26.566 |      3.0000 |      181.00 |
 | "# input particles"                             |      1000 |      66776 |     66.776 |     45.704 |      4.0000 |      317.00 |
 | "# pi+"                                         |      1000 |       5566 |     5.5660 |     4.4797 |      0.0000 |      34.000 |
 | "# pi-"                                         |      1000 |       5477 |     5.4770 |     4.6288 |      0.0000 |      44.000 |
 | "# selected"                                    |      1000 |       1162 |     1.1620 |     1.8324 |      0.0000 |      17.000 |
 |*"#accept"                                       |      1000 |        506 |(  50.6000 +- 1.58102  )%|   -------   |   -------   |
 |*"#pass combcut"                                 |     51774 |       1711 |(  3.30475 +- 0.0785626)%|   -------   |   -------   |
 |*"#pass mother cut"                              |      1711 |       1162 |(  67.9135 +- 1.12853  )%|   -------   |   -------   |
TupleDstToD0pi_...SUCCESS Booked 1 N-Tuples and 0 Event Tag Collections
TupleDstToD0pi_...SUCCESS List of booked N-Tuples in directory "FILE1/TupleDstToD0pi_DstarToKpi"
TupleDstToD0pi_...SUCCESS  ID=DecayTree     Title="DecayTree"                               #items=46 {D0_ENDVERTEX_X,D0_ENDVERTEX_Y,D0_ENDVERTEX_Z,D0_ENDVERTEX_XERR,D0_ENDVERTEX_YERR,}
TupleDstToD0pi_...SUCCESS Number of counters : 4
 |    Counter                                      |     #     |    sum     | mean/eff^* | rms/err^*  |     min     |     max     |
 | "# Phys/Sel_D0"                                 |      1000 |       1162 |     1.1620 |     1.8324 |      0.0000 |      17.000 |
 | "# input particles"                             |      1000 |       1162 |     1.1620 |     1.8324 |      0.0000 |      17.000 |
 |*"#accept"                                       |      1000 |        506 |(  50.6000 +- 1.58102  )%|   -------   |   -------   |
 | "Event"                                         |      1000 |       1000 |     1.0000 |     0.0000 |      1.0000 |      1.0000 |
RootHistSvc       WARNING no ROOT output file name, Histograms cannot be persistified
EventLoopMgr         INFO Histograms converted successfully according to request.
DataOnDemandSvc      INFO Handled "DataFault" incidents: 9518/10024/178446(Alg/Node/Total).
RootCnvSvc           INFO Disconnected data IO:E804D670-84C1-E311-8A3F-003048D4DFBA [root://eoslhcb.cern.ch//eos/lhcb/grid/prod/lhcb/MC/2012/ALLSTREAMS.DST/00035742/0000/00035742_00000001_1.allstreams.dst]
TransportSvc      SUCCESS  GEOMETRY ERRORS: 'Skip'     map has the size 0

TransportSvc      SUCCESS  GEOMETRY ERRORS: 'Recover'  map has the size 0

TransportSvc      SUCCESS  GEOMETRY ERRORS: 'Codes'    map has the size 0

TransportSvc         INFO Reset the static pointer to DetDesc::IGeometyrErrorSvc
ToolSvc              INFO Removing all tools created by ToolSvc
ToolSvc.LoKi::V...SUCCESS Number of counters : 3
 |    Counter                                      |     #     |    sum     | mean/eff^* | rms/err^*  |     min     |     max     |
 | "#iterations/1"                                 |      1711 |       2745 |     1.6043 |    0.48900 |      1.0000 |      2.0000 |
 | "#iterations/2"                                 |      1034 |       2068 |     2.0000 |     0.0000 |      2.0000 |      2.0000 |
 | "#iterations/Opt"                               |      1711 |       1034 |    0.60432 |    0.48900 |      0.0000 |      1.0000 |
ToolSvc.HybridF...SUCCESS Number of counters : 1
 |    Counter                                      |     #     |    sum     | mean/eff^* | rms/err^*  |     min     |     max     |
 | "# loaded from PYTHON"                          |         6 |          6 |     1.0000 |     0.0000 |      1.0000 |      1.0000 |
ToolSvc.CoreFac...SUCCESS Number of counters : 1
 |    Counter                                      |     #     |    sum     | mean/eff^* | rms/err^*  |     min     |     max     |
 | "# loaded from PYTHON"                          |         2 |          2 |     1.0000 |     0.0000 |      1.0000 |      1.0000 |
DaVinciInitAlg....SUCCESS Booked 4 Histogram(s) : 1D=4 
DaVinciInitAlg....SUCCESS Number of counters : 2
 |    Counter                                      |     #     |    sum     | mean/eff^* | rms/err^*  |     min     |     max     |
 | "Delta Memory/MB"                               |       990 |      1.216 |  0.0012283 |   0.024044 |      0.0000 |     0.63200 |
 | "Total Memory/MB"                               |      1000 |    2366122 |     2366.1 |     7.6416 |      2157.7 |      2366.6 |
DaVinciInitAlg....SUCCESS Exceptions/Errors/Warnings/Infos Statistics : 0/0/1/0
DaVinciInitAlg....SUCCESS  #WARNINGS   = 3        Message = 'Delta Memory for the event exceeds 3*sigma'
ToolSvc.L0DUCon...   INFO --------------- TCK = 0x0045------------------
ToolSvc.L0DUCon...   INFO The configuration 0x0045 matches the hardware limitations 
ToolSvc.L0DUCon...   INFO - Usage : #Channels   : 24 [75.0% ]    
ToolSvc.L0DUCon...   INFO - Usage : #Conditions : 32 [25.0% ]; order : OK ; reported  : 32/32
ToolSvc.L0DUCon...   INFO - Usage : #Conditions/type (max)  :[Spd(Mult) : 6/8]
ToolSvc.L0DUCon...   INFO --------------- TCK = 0x10000------------------
ToolSvc.TrackSt...SUCCESS Number of counters : 2
 |    Counter                                      |     #     |    sum     | mean/eff^* | rms/err^*  |     min     |     max     |
 | "Number of states added"                        |       942 |          0 |     0.0000 |     0.0000 |      0.0000 |      0.0000 |
 | "Number of tracks seen"                         |      1000 |      38952 |     38.952 |     29.502 |      0.0000 |      181.00 |
TimingAuditor.T...   INFO ----------------------------------------------------------------------------------------------------------------------
TimingAuditor.T...   INFO This machine has a speed about   2.33 times the speed of a 2.8 GHz Xeon.
TimingAuditor.T...   INFO Algorithm                              (millisec) |    <user> |   <clock> |      min       max    sigma | entries | total (s) |
TimingAuditor.T...   INFO ----------------------------------------------------------------------------------------------------------------------
TimingAuditor.T...   INFO EVENT LOOP                                        |    18.100 |    19.689 |    2.134    3905.8   131.63 |    1000 |    19.690 |
TimingAuditor.T...   INFO  DaVinciEventSeq                                  |    17.310 |    18.772 |    1.603    3872.9   130.65 |    1000 |    18.773 |
TimingAuditor.T...   INFO   DaVinciInitAlg                                  |     0.060 |     0.088 |    0.050       7.4     0.23 |    1000 |     0.088 |
TimingAuditor.T...   INFO   FilteredEventSeq                                |    17.240 |    18.668 |    1.523    3865.5   130.43 |    1000 |    18.668 |
TimingAuditor.T...   INFO    DaVinciEventInitSeq                            |     0.010 |     0.009 |    0.006       1.9     0.06 |    1000 |     0.010 |
TimingAuditor.T...   INFO     PhysInitSeq                                   |     0.000 |     0.001 |    0.001       0.0     0.00 |    1000 |     0.002 |
TimingAuditor.T...   INFO     AnalysisInitSeq                               |     0.000 |     0.001 |    0.001       0.0     0.00 |    1000 |     0.001 |
TimingAuditor.T...   INFO    DaVinciAnalysisSeq                             |    17.230 |    18.652 |    1.512    3865.5   130.43 |    1000 |    18.653 |
TimingAuditor.T...   INFO     DaVinciUserSequence                           |    17.220 |    18.644 |    1.506    3865.4   130.43 |    1000 |    18.644 |
TimingAuditor.T...   INFO      Dzero_seq                                    |    15.330 |    16.619 |    1.477    3863.8   122.35 |    1000 |    16.619 |
TimingAuditor.T...   INFO       SelFilterPhys_StdAllNoPIDsPions_Particles   |    13.870 |    15.027 |    1.291    3663.9   116.07 |    1000 |    15.027 |
TimingAuditor.T...   INFO       SelFilterPhys_StdAllLooseKaons_Particles    |     0.910 |     0.977 |    0.058      44.4     1.61 |    1000 |     0.977 |
TimingAuditor.T...   INFO       Sel_D0                                      |     0.440 |     0.470 |    0.079     155.4     4.91 |    1000 |     0.471 |
TimingAuditor.T...   INFO      TupleDstToD0pi_DstarToKpi                    |     1.820 |     1.958 |    0.007    1378.8    43.60 |    1000 |     1.958 |
TimingAuditor.T...   INFO     MonitoringSequence                            |     0.000 |     0.001 |    0.001       0.0     0.00 |    1000 |     0.002 |
TimingAuditor.T...   INFO   LumiSeq                                         |     0.010 |     0.005 |    0.004       0.1     0.00 |    1000 |     0.006 |
TimingAuditor.T...   INFO    EventAccount                                   |     0.000 |     0.001 |    0.001       0.0     0.00 |    1000 |     0.002 |
TimingAuditor.T...   INFO * createODIN                                      |     0.530 |     0.654 |    0.055      24.1     1.13 |    1000 |     0.654 |
TimingAuditor.T...   INFO *       StdAllNoPIDsPions                         |     0.160 |     0.113 |    0.029       3.0     0.12 |    1000 |     0.113 |
TimingAuditor.T...   INFO *       UnpackChargedProtosSeq                    |     8.940 |     9.266 |    0.819     112.3    11.04 |    1000 |     9.267 |
TimingAuditor.T...   INFO *        UnpackChargedProtos                      |     1.270 |     1.433 |    0.111      96.7     4.14 |    1000 |     1.433 |
TimingAuditor.T...   INFO *        ProtoParticleCombDLLs                    |     5.550 |     5.712 |    0.362      51.5     9.31 |    1000 |     5.712 |
TimingAuditor.T...   INFO *         CheckChargedProtosExist                 |     0.000 |     0.005 |    0.003       0.2     0.01 |    1000 |     0.005 |
TimingAuditor.T...   INFO *         ChargedProtoPAddMuon                    |     4.870 |     5.037 |    0.218      50.3     9.21 |    1000 |     5.037 |
TimingAuditor.T...   INFO *         ChargedProtoPAddRich                    |     0.480 |     0.534 |    0.102       4.0     0.32 |    1000 |     0.535 |
TimingAuditor.T...   INFO *         ChargedProtoPCombDLL                    |     0.200 |     0.120 |    0.017       1.2     0.07 |    1000 |     0.120 |
TimingAuditor.T...   INFO *        ANNPIDSeq                                |     2.090 |     2.109 |    0.284       9.8     1.21 |    1000 |     2.109 |
TimingAuditor.T...   INFO *         ANNPIDRecoVersionFilter                 |     0.020 |     0.040 |    0.020       2.1     0.07 |    1000 |     0.041 |
TimingAuditor.T...   INFO *         ReDoANNPIDLongElectron                  |     0.310 |     0.268 |    0.032       1.0     0.16 |    1000 |     0.268 |
TimingAuditor.T...   INFO *         ReDoANNPIDLongMuon                      |     0.010 |     0.020 |    0.002       0.1     0.02 |    1000 |     0.021 |
TimingAuditor.T...   INFO *         ReDoANNPIDLongPion                      |     0.300 |     0.269 |    0.023       1.1     0.17 |    1000 |     0.269 |
TimingAuditor.T...   INFO *         ReDoANNPIDLongKaon                      |     0.250 |     0.277 |    0.023       1.1     0.17 |    1000 |     0.278 |
TimingAuditor.T...   INFO *         ReDoANNPIDLongProton                    |     0.230 |     0.261 |    0.023       1.5     0.17 |    1000 |     0.261 |
TimingAuditor.T...   INFO *         ReDoANNPIDLongGhost                     |     0.330 |     0.239 |    0.019       1.6     0.16 |    1000 |     0.239 |
TimingAuditor.T...   INFO *         ReDoANNPIDDownstreamElectron            |     0.140 |     0.096 |    0.001       1.2     0.08 |    1000 |     0.096 |
TimingAuditor.T...   INFO *         ReDoANNPIDDownstreamMuon                |     0.000 |     0.009 |    0.001       0.1     0.01 |    1000 |     0.009 |
TimingAuditor.T...   INFO *         ReDoANNPIDDownstreamPion                |     0.050 |     0.079 |    0.001       0.4     0.06 |    1000 |     0.079 |
TimingAuditor.T...   INFO *         ReDoANNPIDDownstreamKaon                |     0.080 |     0.083 |    0.001       1.1     0.07 |    1000 |     0.083 |
TimingAuditor.T...   INFO *         ReDoANNPIDDownstreamProton              |     0.070 |     0.092 |    0.001       1.0     0.07 |    1000 |     0.093 |
TimingAuditor.T...   INFO *         ReDoANNPIDDownstreamGhost               |     0.080 |     0.101 |    0.001       7.3     0.24 |    1000 |     0.102 |
TimingAuditor.T...   INFO *         ReDoANNPIDUpstreamElectron              |     0.040 |     0.039 |    0.001       0.2     0.02 |    1000 |     0.039 |
TimingAuditor.T...   INFO *         ReDoANNPIDUpstreamMuon                  |     0.010 |     0.037 |    0.001       0.3     0.02 |    1000 |     0.037 |
TimingAuditor.T...   INFO *         ReDoANNPIDUpstreamPion                  |     0.030 |     0.036 |    0.001       0.3     0.02 |    1000 |     0.037 |
TimingAuditor.T...   INFO *         ReDoANNPIDUpstreamKaon                  |     0.030 |     0.038 |    0.001       0.9     0.03 |    1000 |     0.038 |
TimingAuditor.T...   INFO *         ReDoANNPIDUpstreamProton                |     0.010 |     0.034 |    0.001       0.4     0.02 |    1000 |     0.034 |
TimingAuditor.T...   INFO *         ReDoANNPIDUpstreamGhost                 |     0.030 |     0.037 |    0.001       0.8     0.03 |    1000 |     0.038 |
TimingAuditor.T...   INFO *          UnpackMuonPIDSeq                       |     0.160 |     0.211 |    0.067       2.1     0.09 |    1000 |     0.211 |
TimingAuditor.T...   INFO *           UnpackMuonPIDs                        |     0.140 |     0.197 |    0.055       2.1     0.09 |    1000 |     0.198 |
TimingAuditor.T...   INFO *           CheckMuonPIDs                         |     0.010 |     0.003 |    0.002       0.0     0.00 |    1000 |     0.004 |
TimingAuditor.T...   INFO *          UnpackTrack                            |     4.590 |     4.709 |    0.088      49.6     9.17 |    1000 |     4.710 |
TimingAuditor.T...   INFO *          UnpackRichPIDSeq                       |     0.380 |     0.417 |    0.068       3.8     0.30 |    1000 |     0.417 |
TimingAuditor.T...   INFO *           UnpackRichPIDs                        |     0.360 |     0.403 |    0.059       3.7     0.29 |    1000 |     0.403 |
TimingAuditor.T...   INFO *           CheckRichPIDs                         |     0.020 |     0.004 |    0.002       0.0     0.00 |    1000 |     0.004 |
TimingAuditor.T...   INFO *       UnpackRecVertex                           |     0.360 |     0.492 |    0.074     114.3     4.10 |    1000 |     0.492 |
TimingAuditor.T...   INFO *       StdAllLooseKaons                          |     0.080 |     0.106 |    0.019       0.5     0.07 |    1000 |     0.107 |
TimingAuditor.T...   INFO *      L0DUFromRaw                                |     0.395 |     0.459 |    0.329      23.1     1.06 |     506 |     0.232 |
TimingAuditor.T...   INFO *      Hlt1DecReportsDecoder                      |     1.007 |     1.077 |    0.040     520.9    23.16 |     506 |     0.545 |
TimingAuditor.T...   INFO *      Hlt2DecReportsDecoder                      |     0.177 |     0.171 |    0.141       2.4     0.10 |     506 |     0.087 |
TimingAuditor.T...   INFO ----------------------------------------------------------------------------------------------------------------------
ToolSvc.LoKi::D...SUCCESS Exceptions/Errors/Warnings/Infos Statistics : 0/0/1/0
ToolSvc.LoKi::D...SUCCESS  #WARNINGS   = 61       Message = 'There is no convergency-III [Sel_D0]'
NTupleSvc            INFO NTuples saved successfully
ApplicationMgr       INFO Application Manager Finalized successfully
ApplicationMgr       INFO Application Manager Terminated successfully
