%!PS-Adobe-3.0 EPSF-3.0
%%Creator: cairo 1.13.1 (http://cairographics.org)
%%CreationDate: Wed Mar 13 14:31:28 2019
%%Pages: 1
%%DocumentData: Clean7Bit
%%LanguageLevel: 2
%%BoundingBox: 0 0 448 448
%%EndComments
%%BeginProlog
save
50 dict begin
/q { gsave } bind def
/Q { grestore } bind def
/cm { 6 array astore concat } bind def
/w { setlinewidth } bind def
/J { setlinecap } bind def
/j { setlinejoin } bind def
/M { setmiterlimit } bind def
/d { setdash } bind def
/m { moveto } bind def
/l { lineto } bind def
/c { curveto } bind def
/h { closepath } bind def
/re { exch dup neg 3 1 roll 5 3 roll moveto 0 rlineto
      0 exch rlineto 0 rlineto closepath } bind def
/S { stroke } bind def
/f { fill } bind def
/f* { eofill } bind def
/n { newpath } bind def
/W { clip } bind def
/W* { eoclip } bind def
/BT { } bind def
/ET { } bind def
/pdfmark where { pop globaldict /?pdfmark /exec load put }
    { globaldict begin /?pdfmark /pop load def /pdfmark
    /cleartomark load def end } ifelse
/BDC { mark 3 1 roll /BDC pdfmark } bind def
/EMC { mark /EMC pdfmark } bind def
/cairo_store_point { /cairo_point_y exch def /cairo_point_x exch def } def
/Tj { show currentpoint cairo_store_point } bind def
/TJ {
  {
    dup
    type /stringtype eq
    { show } { -0.001 mul 0 cairo_font_matrix dtransform rmoveto } ifelse
  } forall
  currentpoint cairo_store_point
} bind def
/cairo_selectfont { cairo_font_matrix aload pop pop pop 0 0 6 array astore
    cairo_font exch selectfont cairo_point_x cairo_point_y moveto } bind def
/Tf { pop /cairo_font exch def /cairo_font_matrix where
      { pop cairo_selectfont } if } bind def
/Td { matrix translate cairo_font_matrix matrix concatmatrix dup
      /cairo_font_matrix exch def dup 4 get exch 5 get cairo_store_point
      /cairo_font where { pop cairo_selectfont } if } bind def
/Tm { 2 copy 8 2 roll 6 array astore /cairo_font_matrix exch def
      cairo_store_point /cairo_font where { pop cairo_selectfont } if } bind def
/g { setgray } bind def
/rg { setrgbcolor } bind def
/d1 { setcachedevice } bind def
%%EndProlog
%%BeginSetup
%%EndSetup
%%Page: 1 1
%%BeginPageSetup
%%PageBoundingBox: 0 0 448 448
%%EndPageSetup
q 0 0 448 448 rectclip q
0.6 g
448 224 m 448 100.289 347.711 0 224 0 c 100.289 0 0 100.289 0 224 c 0 347.711
 100.289 448 224 448 c 347.711 448 448 347.711 448 224 c h
448 224 m f
Q q
5 443 438 -438 re W n
442.398 224 m 442.398 103.379 344.617 5.602 224 5.602 c 103.383 5.602 5.602
 103.379 5.602 224 c 5.602 344.617 103.383 442.398 224 442.398 c 344.617
 442.398 442.398 344.617 442.398 224 c h
442.398 224 m W n
q
5 443 438 -438 re W n
  q
0.6 g
446.398 224 m 446.398 100.289 346.113 0 222.398 0 c 98.688 0 -1.602 100.289
 -1.602 224 c -1.602 347.711 98.688 448 222.398 448 c 346.113 448 446.398
 347.711 446.398 224 c h
446.398 224 m f
  Q
Q
Q q
5 443 438 -438 re W n
442.398 224 m 442.398 103.383 344.617 5.602 224 5.602 c 103.383 5.602 5.602
 103.383 5.602 224 c 5.602 344.617 103.383 442.398 224 442.398 c 344.617
 442.398 442.398 344.617 442.398 224 c h
442.398 224 m W n
q
5 443 438 -438 re W n
  q
1 g
624.992 224 m 624.992 -22.098 538.996 -221.602 432.914 -221.602 c 326.832
 -221.602 240.832 -22.098 240.832 224 c 240.832 470.098 326.832 669.602 
432.914 669.602 c 538.996 669.602 624.992 470.098 624.992 224 c h
624.992 224 m f
  Q
Q
q
5 443 438 -438 re W n
  q
1 g
207.168 224 m 207.168 -22.098 121.168 -221.602 15.086 -221.602 c -90.996
 -221.602 -176.992 -22.098 -176.992 224 c -176.992 470.098 -90.996 669.602
 15.086 669.602 c 121.168 669.602 207.168 470.098 207.168 224 c h
207.168 224 m f
  Q
Q
q
5 443 438 -438 re W n
  q
0.6 g
616.398 224 m 616.398 33.57 540.199 -120.801 446.199 -120.801 c 352.199
 -120.801 276 33.57 276 224 c 276 414.43 352.199 568.801 446.199 568.801
 c 540.199 568.801 616.398 414.43 616.398 224 c h
616.398 224 m f
  Q
Q
q
5 443 438 -438 re W n
  q
0.6 g
172 224 m 172 33.57 95.801 -120.801 1.801 -120.801 c -92.199 -120.801 -168.398
 33.57 -168.398 224 c -168.398 414.43 -92.199 568.801 1.801 568.801 c 95.801
 568.801 172 414.43 172 224 c h
172 224 m f
  Q
Q
q
5 443 438 -438 re W n
  q
1 g
654.801 224 m 654.801 77.754 577.523 -40.801 482.199 -40.801 c 386.875 
-40.801 309.602 77.754 309.602 224 c 309.602 370.246 386.875 488.801 482.199
 488.801 c 577.523 488.801 654.801 370.246 654.801 224 c h
654.801 224 m f
  Q
Q
q
5 443 438 -438 re W n
  q
1 g
138.398 224 m 138.398 77.754 61.125 -40.801 -34.199 -40.801 c -129.523 
-40.801 -206.801 77.754 -206.801 224 c -206.801 370.246 -129.523 488.801
 -34.199 488.801 c 61.125 488.801 138.398 370.246 138.398 224 c h
138.398 224 m f
  Q
Q
q
5 443 438 -438 re W n
  q
0.6 g
522.078 224 m 522.078 142.371 482.18 76.199 432.961 76.199 c 383.742 76.199
 343.84 142.371 343.84 224 c 343.84 305.629 383.742 371.801 432.961 371.801
 c 482.18 371.801 522.078 305.629 522.078 224 c h
522.078 224 m f
  Q
Q
q
5 443 438 -438 re W n
  q
0.6 g
104.16 224 m 104.16 142.371 64.258 76.199 15.039 76.199 c -34.18 76.199
 -74.078 142.371 -74.078 224 c -74.078 305.629 -34.18 371.801 15.039 371.801
 c 64.258 371.801 104.16 305.629 104.16 224 c h
104.16 224 m f
  Q
Q
q
5 443 438 -438 re W n
  q
1 g
521.52 224 m 521.52 176.082 489.285 137.238 449.52 137.238 c 409.754 137.238
 377.52 176.082 377.52 224 c 377.52 271.918 409.754 310.762 449.52 310.762
 c 489.285 310.762 521.52 271.918 521.52 224 c h
521.52 224 m f
  Q
Q
q
5 443 438 -438 re W n
  q
1 g
70.48 224 m 70.48 176.082 38.246 137.238 -1.52 137.238 c -41.285 137.238
 -73.52 176.082 -73.52 224 c -73.52 271.918 -41.285 310.762 -1.52 310.762
 c 38.246 310.762 70.48 271.918 70.48 224 c h
70.48 224 m f
  Q
Q
q
5 443 438 -438 re W n
  q
0.6 g
480.719 224 m 480.719 204.914 465.211 189.441 446.078 189.441 c 426.949
 189.441 411.441 204.914 411.441 224 c 411.441 243.086 426.949 258.559 446.078
 258.559 c 465.211 258.559 480.719 243.086 480.719 224 c h
480.719 224 m f
  Q
Q
q
5 443 438 -438 re W n
  q
0.6 g
36.559 224 m 36.559 204.914 21.051 189.441 1.922 189.441 c -17.211 189.441
 -32.719 204.914 -32.719 224 c -32.719 243.086 -17.211 258.559 1.922 258.559
 c 21.051 258.559 36.559 243.086 36.559 224 c h
36.559 224 m f
  Q
Q
Q q
0 g
383.992 230.957 m 383.484 254.082 376.562 272.965 363.227 287.605 c 349.891
 302.242 333.176 313.02 313.09 319.93 c 293 326.84 272.578 330.262 251.82
 330.199 c 250.875 330.211 249.871 330.191 248.809 330.145 c 247.746 330.094
 246.738 329.957 245.793 329.738 c 246.699 343.648 249.871 354.082 255.301
 361.039 c 260.73 367.996 271.32 371.477 287.066 371.477 c 288.016 371.465
 289.02 371.367 290.082 371.184 c 291.145 371 292.148 370.789 293.098 370.547
 c 293.098 377.504 l 154.898 377.504 l 154.898 370.547 l 160.461 370.547
 l 173.852 370.586 183.707 367.262 190.027 360.578 c 196.344 353.891 199.477
 343.609 199.418 329.738 c 198.508 329.957 197.66 330.094 196.867 330.145
 c 196.074 330.191 195.223 330.211 194.316 330.199 c 173.582 330.23 153.32
 326.566 133.531 319.207 c 113.738 311.852 97.324 300.629 84.285 285.543
 c 71.246 270.457 64.484 251.332 64 228.176 c 65.344 192.727 78.773 166.234
 104.289 148.699 c 129.805 131.16 159.352 122.406 192.926 122.438 c 194.066
 122.426 195.148 122.445 196.172 122.496 c 197.195 122.543 198.277 122.68
 199.418 122.902 c 199.883 120.582 l 200.055 106.996 197.039 96.371 190.836
 88.699 c 184.637 81.027 174.199 77.125 159.535 76.988 c 155.824 77.453 
l 155.824 70.496 l 288.457 70.496 l 288.457 77.453 l 284.285 77.453 l 272.129
 77.598 262.699 81.25 255.996 88.41 c 249.289 95.566 245.891 105.363 245.793
 117.801 c 245.793 122.902 l 249.039 122.359 252.75 122.051 256.922 121.973
 c 270.777 122.242 285.156 124.832 300.055 129.742 c 314.949 134.648 327.938
 140.254 339.008 146.551 c 355.289 155.723 366.902 167.527 373.848 181.973
 c 380.793 196.418 384.176 212.746 383.992 230.957 c h
334.836 230.492 m 334.836 201.391 327.414 178.438 312.574 161.625 c 297.734
 144.812 275.473 136.234 245.793 135.887 c 245.793 315.824 l 272.227 315.602
 293.559 308.047 309.793 293.156 c 326.023 278.27 334.371 257.383 334.836
 230.492 c h
199.418 135.887 m 168.801 136.215 146.559 144.832 132.695 161.742 c 118.828
 178.648 112.008 201.875 112.23 231.422 c 112.473 259.082 120.223 280.047
 135.477 294.316 c 150.73 308.586 172.047 315.758 199.418 315.824 c h
199.418 135.887 m f
Q Q
showpage
%%Trailer
end restore
%%EOF
